[gd_scene format=2]

[node name="End_Game_Message" type="Panel"]
margin_right = 1075.0
margin_bottom = 641.0
__meta__ = {
"_edit_use_anchors_": false
}

[node name="RichTextLabel" type="RichTextLabel" parent="."]
margin_left = 554.17
margin_top = 457.845
margin_right = 888.17
margin_bottom = 542.845
rect_scale = Vector2( 1.5, 1.5 )
text = "Thank you for playing.
Please close the window and have a nice day.

This game was made by Munro and Sylph."
__meta__ = {
"_edit_use_anchors_": false
}
